{
  "ipsilon" : {
    "login_path": "https://ipsilon.sgu.ru/users/sign_in",
    "test_path" : "https://ipsilon.sgu.ru/?after_sign_in=true",
    "test_word" : "Портфолио"
  },
  "course" : {
    "login_path": "https://course.sgu.ru/login/index.php",
    "test_path" : "https://course.sgu.ru/#",
    "test_word" : "Мои курсы"
  }
}